{
    "KPlugin": {
        "Authors": [
            {
                "Email": "plasma-devel@kde.org",
                "Name": "KDE Visual Design Group",
                "Name[ar]": "مجموعة التصميم المرئي لكدي",
                "Name[az]": "KDE Vizual Dizayn Qrupu",
                "Name[be]": "Суполка візуальнага дызайну KDE",
                "Name[bg]": "KDE Visual Design Group",
                "Name[ca@valencia]": "Grup de disseny visual de KDE",
                "Name[ca]": "Grup de disseny visual de KDE",
                "Name[cs]": "Skupina vizuálního návrhu KDE",
                "Name[da]": "KDE Visual Design Group",
                "Name[de]": "KDE Visual Design Group",
                "Name[en_GB]": "KDE Visual Design Group",
                "Name[es]": "El grupo de diseño visual de KDE",
                "Name[eu]": "KDE Diseinu bisualeko taldea",
                "Name[fi]": "KDE:n visuaalinen suunnitteluryhmä",
                "Name[fr]": "Groupe de conception visuelle de KDE",
                "Name[hu]": "KDE Visual Design Group",
                "Name[ia]": "KDE Visual Design Group (Gruppo de Designo Visual de KDE)",
                "Name[id]": "Grup Desain Visual KDE",
                "Name[is]": "Myndrænn hönnunarhópur KDE",
                "Name[it]": "KDE Visual Design Group",
                "Name[ja]": "KDE Visual Design Group",
                "Name[ka]": "KDE-ის ვიზუალური დიზაინის ჯგუფი",
                "Name[ko]": "KDE 시각 디자인 그룹",
                "Name[lt]": "KDE vaizdinio dizaino grupė",
                "Name[nl]": "KDE Visuele ontwerpgroep",
                "Name[nn]": "KDE Visual Design Group",
                "Name[pl]": "Grupa oprawy graficznej KDE",
                "Name[pt]": "Grupo de Desenho Visual do KDE",
                "Name[pt_BR]": "Grupo de Design Visual do KDE",
                "Name[ro]": "KDE Visual Design Group",
                "Name[ru]": "Группа KDE Visual Design",
                "Name[sk]": "KDE Visual Design Group",
                "Name[sl]": "Skupina vizualnega designa KDE",
                "Name[sv]": "KDE:s visuella designgrupp",
                "Name[ta]": "கே.டீ.யீ. வரைகலை வடிவமைப்புக் குழு",
                "Name[tr]": "KDE Görsel Tasarım Grubu",
                "Name[uk]": "Група з візуального дизайну KDE",
                "Name[vi]": "Đội Thiết kế Trực quan KDE",
                "Name[x-test]": "xxKDE Visual Design Groupxx",
                "Name[zh_CN]": "KDE 视觉设计团队"
            }
        ],
        "Category": "",
        "Description": "Breeze Dark by the KDE VDG",
        "Description[ar]": "نسيم داكن من من مجموعة تصميم كدي",
        "Description[az]": "KDE VDG tərəfindən Breeze Qara",
        "Description[be]": "Breeze Dark ад KDE VDG",
        "Description[bg]": "Breeze Тъмен от KDE VDG",
        "Description[ca@valencia]": "Brisa fosca, creat pel VDG de KDE",
        "Description[ca]": "Brisa fosca, creat pel VDG del KDE",
        "Description[cs]": "Breeze Dark od KDE VDG",
        "Description[da]": "Breeze Dark af KDE's visuelle designgruppe",
        "Description[de]": "Breeze Dunkel von der KDE VDG",
        "Description[en_GB]": "Breeze Dark by the KDE VDG",
        "Description[es]": "Brisa oscuro por KDE VDG",
        "Description[et]": "Breeze tume KDE VDG-lt",
        "Description[eu]": "Breeze iluna KDEren VDGk egina",
        "Description[fi]": "Tumma Breeze KDE VDG:ltä",
        "Description[fr]": "Breeze sombre par le groupe de conception visuelle de KDE « VDG »",
        "Description[hu]": "Breeze Dark a KDE VDG-től",
        "Description[ia]": "Breeze Dark (Brisa Obscure) per le KDE VDG",
        "Description[id]": "Breeze oleh KDE VDG",
        "Description[is]": "Breeze Dark frá KDE VDG",
        "Description[it]": "Brezza scuro del KDE VDG",
        "Description[ja]": "Breeze Dark by the KDE VDG",
        "Description[ka]": "Breeze Dark \"KDE VDG\"-სგან",
        "Description[ko]": "KDE 시각 디자인 그룹에서 제작한 어두운 Breeze",
        "Description[lt]": "Breeze tamsus pagal KDE VDG",
        "Description[nl]": "Breeze Dark door de KDE VDG",
        "Description[nn]": "Breeze mørk frå KDE VDG",
        "Description[pa]": "ਕੇਡੀਈ ਵੀਡੀਜੀ ਵਲੋਂ ਬਰੀਜ਼ ਗੂੜ੍ਹਾ",
        "Description[pl]": "Ciemna Bryza autorstwa KDE VDG",
        "Description[pt]": "Brisa Escuro da VDG do KDE",
        "Description[pt_BR]": "Breeze Dark pelo KDE VDG",
        "Description[ro]": "Briză, întunecat, de KDE VDG",
        "Description[ru]": "Тёмный вариант Breeze от KDE VDG",
        "Description[sk]": "Vánok Tmavý od KDE VDG",
        "Description[sl]": "Sapica temna avtorjev KDE VDG",
        "Description[sv]": "Breeze mörk av KDE:s visuella designgrupp",
        "Description[tr]": "KDE VDG'den Esinti Koyu",
        "Description[uk]": "Темна Breeze, автори — KDE VDG",
        "Description[vi]": "Breeze Tối, do KDE VDG",
        "Description[x-test]": "xxBreeze Dark by the KDE VDGxx",
        "Description[zh_CN]": "Breeze 微风深色主题，由 KDE VDG (视觉设计团队) 设计制作",
        "Description[zh_TW]": "由 KDE VDG 設計的 Breeze Dark",
        "Id": "org.kde.breezedark.desktop",
        "License": "GPLv2+",
        "Name": "Breeze Dark",
        "Name[ar]": "نسيم داكن",
        "Name[az]": "Breeze Qara",
        "Name[be]": "Breeze Dark",
        "Name[bg]": "Breeze Тъмен",
        "Name[ca@valencia]": "Brisa fosca",
        "Name[ca]": "Brisa fosca",
        "Name[cs]": "Breeze Tmavé",
        "Name[da]": "Breeze Dark",
        "Name[de]": "Breeze Dunkel",
        "Name[en_GB]": "Breeze Dark",
        "Name[es]": "Brisa oscuro",
        "Name[et]": "Breeze tume",
        "Name[eu]": "Breeze iluna",
        "Name[fi]": "Tumma Breeze",
        "Name[fr]": "Breeze sombre",
        "Name[hi]": "ब्रीज़ गहरा",
        "Name[hu]": "Breeze Dark",
        "Name[ia]": "Brisa obscure",
        "Name[id]": "Breeze Gelap",
        "Name[is]": "Breeze Dark",
        "Name[it]": "Brezza scuro",
        "Name[ja]": "Breeze Dark",
        "Name[ka]": "ნავი მუქი",
        "Name[ko]": "어두운 Breeze",
        "Name[lt]": "Breeze tamsus",
        "Name[nl]": "Breeze Dark",
        "Name[nn]": "Breeze mørk",
        "Name[pa]": "ਬਰੀਜ਼ ਗੂੜ੍ਹਾ",
        "Name[pl]": "Ciemna Bryza",
        "Name[pt]": "Brisa Escura",
        "Name[pt_BR]": "Breeze Dark",
        "Name[ro]": "Briză, întunecat",
        "Name[ru]": "Breeze, тёмный вариант",
        "Name[sk]": "Vánok Tmavý",
        "Name[sl]": "Sapica temna",
        "Name[sv]": "Breeze mörk",
        "Name[ta]": "கருப்பு பிரீஸ்",
        "Name[tg]": "Насими торик",
        "Name[tr]": "Esinti Koyu",
        "Name[uk]": "Темна Breeze",
        "Name[vi]": "Breeze Tối",
        "Name[x-test]": "xxBreeze Darkxx",
        "Name[zh_CN]": "Breeze 微风深色",
        "Name[zh_TW]": "Breeze Dark",
        "ServiceTypes": [
            "Plasma/LookAndFeel"
        ],
        "Version": "2.0",
        "Website": "https://www.kde.org"
    },
    "X-Plasma-MainScript": "defaults"
}
