{
    "KPlugin": {
        "Authors": [
            {
                "Email": "wilderkde@gmail.com",
                "Name": "Jacopo De Simoi",
                "Name[ar]": "Jacopo De Simoi",
                "Name[az]": "Jacopo De Simoi",
                "Name[be]": "Jacopo De Simoi",
                "Name[bg]": "Jacopo De Simoi",
                "Name[ca@valencia]": "Jacopo De Simoi",
                "Name[ca]": "Jacopo De Simoi",
                "Name[cs]": "Jacopo De Simoi",
                "Name[da]": "Jacopo De Simoi",
                "Name[de]": "Jacopo De Simoi",
                "Name[en_GB]": "Jacopo De Simoi",
                "Name[es]": "Jacopo De Simoi",
                "Name[et]": "Jacopo De Simoi",
                "Name[eu]": "Jacopo De Simoi",
                "Name[fi]": "Jacopo De Simoi",
                "Name[fr]": "Jacopo De Simoi",
                "Name[hu]": "Jacopo De Simoi",
                "Name[ia]": "Jacopo De Simoi",
                "Name[id]": "Jacopo De Simoi",
                "Name[is]": "Jacopo De Simoi",
                "Name[it]": "Jacopo De Simoi",
                "Name[ja]": "Jacopo De Simoi",
                "Name[ka]": "Jacopo De Simoi",
                "Name[ko]": "Jacopo De Simoi",
                "Name[lt]": "Jacopo De Simoi",
                "Name[nl]": "Jacopo De Simoi",
                "Name[nn]": "Jacopo De Simoi",
                "Name[pl]": "Jacopo De Simoi",
                "Name[pt]": "Jacopo De Simoi",
                "Name[pt_BR]": "Jacopo De Simoi",
                "Name[ro]": "Jacopo De Simoi",
                "Name[ru]": "Jacopo De Simoi",
                "Name[sk]": "Jacopo De Simoi",
                "Name[sl]": "Jacopo De Simoi",
                "Name[sv]": "Jacopo De Simoi",
                "Name[ta]": "ஜாக்கோப்போ டீ சிமோயி",
                "Name[tr]": "Jacopo De Simoi",
                "Name[uk]": "Jacopo De Simoi",
                "Name[vi]": "Jacopo De Simoi",
                "Name[x-test]": "xxJacopo De Simoixx",
                "Name[zh_CN]": "Jacopo De Simoi"
            }
        ],
        "Category": "",
        "Description": "Passive device notifications for the user.",
        "Description[ar]": "إخطارات الجهاز السلبية للمستخدم.",
        "Description[az]": "İstifadəçi üçün qurğuların passiv bildirişləri.",
        "Description[be]": "Пасіўныя апавяшчэнні пра прылады для карыстальніка.",
        "Description[bg]": "Пасивни уведомления от устройствата за потребителя.",
        "Description[ca@valencia]": "Notificacions passives de dispositius per a l'usuari.",
        "Description[ca]": "Notificacions passives de dispositius per a l'usuari.",
        "Description[cs]": "Pasivní upozornění zařízení pro uživatele.",
        "Description[da]": "Passive enhedsbekendtgørelser til brugeren.",
        "Description[de]": "Passive Geräte-Benachrichtigungen für den Anwender.",
        "Description[en_GB]": "Passive device notifications for the user.",
        "Description[eo]": "Pasivaj aparat-atentigoj por la uzanto.",
        "Description[es]": "Notificaciones pasivas de dispositivos para el usuario.",
        "Description[et]": "Passiivsed seadmete märguanded kasutajale.",
        "Description[eu]": "Erabiltzailearentzako gailu-jakinarazpen pasiboak.",
        "Description[fi]": "Passiiviset laiteilmoitukset käyttäjälle.",
        "Description[fr]": "Notifications passives de périphériques pour l'utilisateur.",
        "Description[hu]": "Passzív eszközértesítések a felhasználónak.",
        "Description[ia]": "Notificationes de dispositivo passive pro le usator.",
        "Description[id]": "Notifikasi peranti pasif untuk pengguna.",
        "Description[is]": "Hlutlausar tækistilkynningar til notandans.",
        "Description[it]": "Notifiche dei dispositivi passive per l'utente.",
        "Description[ja]": "ユーザ用の受動的デバイス通知です。",
        "Description[ka]": "პასიური მოწყობილობის გაფრთხილებები მომხმარებლისთვის.",
        "Description[ko]": "사용자에게 보이는 수동적인 장치 알림입니다.",
        "Description[lt]": "Pasyvūs pranešimai naudotojui apie įrenginius.",
        "Description[nl]": "Passieve meldingen van apparaten voor de gebruiker.",
        "Description[nn]": "Passive einingsvarslingar for brukaren.",
        "Description[pa]": "ਵਰਤੋਂਕਾਰ ਲਈ ਪੈਸਿਵ ਡਿਵਾਈਸ ਨੋਟੀਫਿਕੇਸ਼ਨ।",
        "Description[pl]": "Powiadamia biernie użytkownika o urządzeniach.",
        "Description[pt]": "Notificações passivas de dispositivos para o utilizador.",
        "Description[pt_BR]": "Notificações passivas de dispositivos para o usuário.",
        "Description[ro]": "Notificări de dispozitiv pasive pentru utilizator.",
        "Description[ru]": "Пассивные уведомления об оборудовании для пользователя.",
        "Description[sk]": "Pasívne upozornenia zariadení pre užívateľa.",
        "Description[sl]": "Pasivno obvestilo naprave za uporabnika.",
        "Description[sv]": "Passiva enhetsunderrättelser för användaren.",
        "Description[ta]": "பயனருக்கான சாதன அறிவிப்புகள்.",
        "Description[tr]": "Kullanıcı için pasif aygıt bildirimleri.",
        "Description[uk]": "Пасивні сповіщення користувача щодо пристроїв.",
        "Description[vi]": "Thông báo thiết bị thụ động dành cho người dùng.",
        "Description[x-test]": "xxPassive device notifications for the user.xx",
        "Description[zh_CN]": "为用户提供被动出现的设备通知。",
        "Description[zh_TW]": "給使用者的被動裝置通知。",
        "Icon": "device-notifier",
        "Id": "devicenotifications",
        "Name": "Device Notifications",
        "Name[ar]": "إخطارات الأجهزة",
        "Name[az]": "Qurğular haqqında məlumatlar",
        "Name[be]": "Апавяшчэнні прылад",
        "Name[bg]": "Уведомления от устройства",
        "Name[bn]": "ডিভাইস বিজ্ঞপ্তি",
        "Name[bs]": "Obavještenja o uređajima",
        "Name[ca@valencia]": "Notificacions dels dispositius",
        "Name[ca]": "Notificacions dels dispositius",
        "Name[cs]": "Upozornění zařízení",
        "Name[da]": "Enhedsbekendtgørelser",
        "Name[de]": "Geräte-Benachrichtigungen",
        "Name[el]": "Ειδοποιήσεις συσκευών",
        "Name[en_GB]": "Device Notifications",
        "Name[eo]": "Aparat-Atentigoj",
        "Name[es]": "Notificaciones de dispositivo",
        "Name[et]": "Seadmete märguanded",
        "Name[eu]": "Gailu-jakinarazpenak",
        "Name[fi]": "Laiteilmoitukset",
        "Name[fr]": "Notifications des périphériques",
        "Name[ga]": "Fógraí Gléasanna",
        "Name[gl]": "Notificacións dos dispositivos",
        "Name[he]": "הודעות של התקנים",
        "Name[hi]": "औज़ार सूचनाएँ",
        "Name[hr]": "Obavijesti uređaja",
        "Name[hsb]": "Zdźělenki grata",
        "Name[hu]": "Eszközértesítések",
        "Name[ia]": "Notificationes de dispositivo",
        "Name[id]": "Notifikasi Peranti",
        "Name[is]": "Tilkynningar um tæki",
        "Name[it]": "Notifiche dei dispositivi",
        "Name[ja]": "デバイスの通知",
        "Name[ka]": "მოწყობილობის შეტყობინება",
        "Name[kk]": "Құрылғы құлақтандырулары",
        "Name[km]": "ការ​​ជូន​ដំណឹង​​ឧបករណ៍",
        "Name[kn]": "ಸಾಧನ ಸೂಚನೆಗಳು",
        "Name[ko]": "장치 알림",
        "Name[lt]": "Pranešimai apie įrenginius",
        "Name[lv]": "Iekārtu paziņojumi",
        "Name[ml]": "ഡിവൈസിനെപറ്റിയുള്ള അറിയിപ്പുകള്‍",
        "Name[mr]": "साधन सूचना",
        "Name[nb]": "Enhetsvarslinger",
        "Name[nds]": "Reedschap-Bescheden",
        "Name[nl]": "Meldingen van apparaten",
        "Name[nn]": "Einings­varslingar",
        "Name[pa]": "ਜੰਤਰ ਨੋਟੀਫਿਕੇਸ਼ਨ",
        "Name[pl]": "Powiadomienia urządzeń",
        "Name[pt]": "Notificações de Dispositivos",
        "Name[pt_BR]": "Notificações de dispositivos",
        "Name[ro]": "Notificări dispozitive",
        "Name[ru]": "Уведомления об устройствах",
        "Name[si]": "මෙවලම් දැනුම් දීම්",
        "Name[sk]": "Upozornenia zariadení",
        "Name[sl]": "Obvestila o napravah",
        "Name[sr@ijekavian]": "Обавјештења о уређајима",
        "Name[sr@ijekavianlatin]": "Obavještenja o uređajima",
        "Name[sr@latin]": "Obaveštenja o uređajima",
        "Name[sr]": "Обавештења о уређајима",
        "Name[sv]": "Enhetsunderrättelser",
        "Name[ta]": "சாதன அறிவிப்புகள்",
        "Name[tg]": "Огоҳиҳои дастгоҳ",
        "Name[th]": "การแจ้งเกี่ยวกับอุปกรณ์",
        "Name[tr]": "Aygıt Bildirimleri",
        "Name[ug]": "ئۈسكۈنە ئۇقتۇرۇشلىرى",
        "Name[uk]": "Сповіщення про пристрої",
        "Name[vi]": "Thông báo của thiết bị",
        "Name[wa]": "Notifiaedjes des éndjins",
        "Name[x-test]": "xxDevice Notificationsxx",
        "Name[zh_CN]": "设备通知",
        "Name[zh_TW]": "裝置通知",
        "Website": "https://kde.org/plasma-desktop"
    }
}
